{
	"name":        "Databases",
	"type":        "mssql",
	"description": "MSSQL Databases",
	"reports": {
		"Table": [
			"reports/mssql/GetListOfDatabases",
			"reports/mssql/GetSizeOfDatabases",
			"reports/mssql/GetDatabasesBackupStatus.Table",
			"reports/mssql/GetDatabasesRestoreStatus.Table"
		],
		"Graphics": [
			"reports/mssql/GetSizeOfDatabases.Graph.TotalSize",
			"reports/mssql/GetSizeOfDatabases.Graph.DataSize",
			"reports/mssql/GetSizeOfDatabases.Graph.LogSize"
		],
		"Content": [
			"reports/mssql/getInstanceDatabaseObjectsCount"
		]
	}
}
