{
	"name":        "serverInformation2",
	"type":        "mssql",
	"description": "second report module",
	"reports": {
		"getSum": [
			"reports/mssql/getSum",
			"reports/mssql/getSum2"
		]
	}
}
