{
	"name":        "GetSizeOfDatabases",
	"description": "Get size of Databases and collect historical values",

	"extract" : [
		{
			"order": 1,
			"sectionName": "GetSizeOfDatabases",
			"file": [
				{
					"min":  "*",
					"max":  "8.*",
					"file": "sql/GetSizeOfDatabases.2000.sql"
				},
				{
					"min":  "9.*",
					"max":  "*",
					"file": "sql/GetSizeOfDatabases.2005.sql"
				}
			],
			"primary key": [
				"EventDateTime",
				"ServerName",
				"DatabaseId"
			],
			"storage": "staging",
			"savehistoryrecords": false,
			"parameters": [
			]
		}
	],

	"transformation": [
		{
			"order": 1,
			"sectionName": "GetSizeOfDatabases.transformation.dwh_InstanceDatabase",
			"file": "sqlite/GetSizeOfDatabases.transformation.dwh_InstanceDatabase.sql",
			"storage": "staging",
			"attached": [
				"report"
			],
			"parameters": [
			]
		},
		{
			"order": 2,
			"sectionName": "GetSizeOfDatabases.transformation.dwh_InstanceDatabaseSize",
			"file": "sqlite/GetSizeOfDatabases.transformation.dwh_InstanceDatabaseSize.sql",
			"storage": "staging",
			"attached": [
				"report"
			],
			"parameters": [
			]
		}
	],

	"load": {
		"file": "sqlite/GetSizeOfDatabases.load.sql",
		"storage": "staging",
		"attached": [
			"report"
		],
		"parameters": [
		]
	},

	"component": {
		"name": "DateLineReport",
		"struct": {
			"xvalues": [
				"EventDateTime"
			],

			"yvalues": [
				"DatabaseDataSizeMB",
				"DatabaseLogSizeMB"
			],

			"options": {
				"axes": {
					"xaxis": {
						"autoscale": true,
						"tickOptions": {
							"formatString": "%Y/%#m/%#d %#H:%#M"
						}
					},
					"yaxis": {
						"autoscale": true
					}
				},

				"axesDefaults": {
					"useSeriesColor": true
				},

				"series": [
					{
						"yaxis": "yaxis",

						"lineWidth": 1,

						"markerOptions": {
							"show": false,
							"style": "square",
							"lineWidth": 2
						}
					},
					{
						"yaxis": "yaxis",

						"lineWidth": 1,

						"markerOptions": {
							"show": false,
							"style": "square",
							"lineWidth": 2
						}
					}
				]
			}
		}
	}
}
