{
	"name":        "getDate1",
	"description": "Report1: query is to get the current datetime value",

	"extract": [
		{
			"order": 1,
			"sectionName": "getDate1",
			"file": [
				{
					"min":  "*",
					"max":  "*",
					"file": "sql/getDate1.sql"
				}
			],
			"primary key": [
				"ServerName"
			],
			"storage": "report",
			"savehistoryrecords": false,
			"parameters": [
				{
					"database":  "true",
					"interface": "true",
					"name":      "",
					"text":      "Database",
					"type":      "String",
					"value":     "",
					"show":      "List",
					"query": {
						"file":[
							{
								"min":  "*",
								"max":  "*",
								"file": "sql/GetListOfDatabases.sql"
							}
						],
						"columnMax":  "",
						"columnMin":  "",
						"columnName": "DatabaseName"
					}
				},
				{
					"database":  "false",
					"interface": "false",
					"name":      "@intNumberOfSeconds",
					"text":      "",
					"type":      "Integer",
					"value":     "30",
					"show":      "",
					"query":     {}
				}
			]
		}
	],

	"transformation": [
	],

	"load": {
		"file": "sqlite/load/getDate1.sql",
		"storage": "report",
		"attached": [
		],
		"parameters": [
		]
	},

	"component":   {
		"name": "tableRawReport",
		"struct": {
			"ServerName": {
				"source":      "ServerName",
				"displayName": "Server Name",
				"alignment":   "right",
				"valignment":  "bottom",
				"color":       "#fff",
				"bgcolor":     "#000"
			},
			"ServerVersion": {
				"source":      "ServerVersion",
				"displayName": "Version"
			},
			"SUserName": {
				"source":      "SUserName",
				"displayName": "SUser"
			},
			"UserName": {
				"source":      "UserName",
				"displayName": "User"
			},
			"EventTime": {
				"source":      "EventTime",
				"displayName": "Event Time",
				"type":        "date",
				"format":      "HH:mm:ss"
			},
			"CurrentDatabase": {
				"source":      "CurrentDatabase",
				"displayName": "Current Database"
			},
			"Message": {
				"source":      "Message",
				"displayName": "Message"
			},
			"RecordSet": {
				"source":      "RecordSet",
				"displayName": "Record Set"
			}
		}
	}
}
