{
	"name":        "GetDatabasesRestoreStatus",
	"description": "get databases restoration status",

	"extract": [
		{
			"order": 1,
			"sectionName": "GetDatabasesRestoreStatus",
			"file": [
				{
					"min":  "*",
					"max":  "*",
					"file": "sql/GetDatabasesRestoreStatus.sql"
				}
			],
			"primary key": [
				"DatabaseId",
				"DatabaseRestoreType"
			],
			"storage": "report",
			"savehistoryrecords": false,
			"parameters": [
			]
		}
	],

	"transformation": [
	],

	"load": {
		"file": "sqlite/load/GetDatabasesRestoreStatus.sql",
		"storage": "report",
		"attached": [
		],
		"parameters": [
		]
	},

	"component": {
		"name": "tableRawReport"
	}
}
