{
	"name":        "getSum",
	"description": "Report1: query is to get 1+1 sum amount",

	"extract": [
		{
			"order": 1,
			"sectionName": "getSum",
			"file": [
				{
					"min":  "*",
					"max":  "*",
					"file": "sql/getSum.sql"
				}
			],
			"primary key": [
				"HostName",
				"Exercise"
			],
			"storage": "report",
			"savehistoryrecords": false,
			"parameters": [
			]
		}
	],

	"transformation": [
	],

	"load": {
		"file": "sqlite/load/getSum.sql",
		"storage": "report",
		"attached": [
		],
		"parameters": [
		]
	},

	"component": {
		"name": "getSumReport",
		"struct": {
			"HostName": {
				"source":      "HostName",
				"displayName": "Host Name"
			},
			"CurrentTime": {
				"source":      "CurrentTime",
				"displayName": "Current Time",
				"type":        "date",
				"format":      "HH:mm:ss"
			},
			"Exercise": {
				"source": "Exercise"
			},
			"Solution": {
				"source": "Solution"
			}
		}
	}
}
