{
	"name":        "getTwoXYLinesReport",
	"description": "Report: two XY lines Graphic",

	"extract": [
		{
			"order": 1,
			"sectionName": "getTwoXYLinesReport",
			"file": [
				{
					"min":  "*",
					"max":  "*",
					"file": "sql/getTwoXYLinesReport.sql"
				}
			],
			"primary key": [
				"idLine",
				"idPoint"
			],
			"storage": "report",
			"savehistoryrecords": false,
			"parameters": [
			]
		}
	],

	"transformation": [
	],

	"load": {
		"file": "sqlite/load/getTwoXYLinesReport.sql",
		"storage": "report",
		"attached": [
		],
		"parameters": [
		]
	},

	"component": {
		"name": "twoXYLinesReport",
		"struct": {
			"line": {
				"source": "idLine"
			},
			"x": {
				"source": "XValue"
			},
			"y": {
				"source": "YValue"
			}
		}
	}
}
